Lab05/Lab5test/lab5.vcd
$date
	Tue May 24 02:20:46 2022
$end
$version
	Icarus Verilog
$end
$timescale
	1ps
$end
$scope module testbench $end
$var reg 1 ! clk $end
$var reg 1 " rst_n $end
$var integer 32 # count [31:0] $end
$var integer 32 $ fp_w [31:0] $end
$scope module CPU $end
$var wire 1 % IFID_Flush $end
$var wire 1 ! clk_i $end
$var wire 1 " rst_i $end
$var wire 32 & SL1_o [31:0] $end
$var wire 1 ' RegWrite $end
$var wire 32 ( RTdata_o [31:0] $end
$var wire 32 ) RSdata_o [31:0] $end
$var wire 1 * PC_write $end
$var wire 32 + PC_o [31:0] $end
$var wire 32 , PC_i [31:0] $end
$var wire 32 - PC_Add_Immediate [31:0] $end
$var wire 32 . PC_Add4 [31:0] $end
$var wire 1 / MemtoReg $end
$var wire 1 0 MemWrite $end
$var wire 1 1 MemRead $end
$var wire 8 2 MUX_control_o [7:0] $end
$var wire 32 3 MUXMemtoReg_o [31:0] $end
$var wire 1 4 MUXControl $end
$var wire 32 5 MUXALUSrc_o [31:0] $end
$var wire 3 6 MEMWB_WB_o [2:0] $end
$var wire 32 7 MEMWB_PC_Add4_o [31:0] $end
$var wire 5 8 MEMWB_Instr_11_7_o [4:0] $end
$var wire 32 9 MEMWB_DM_o [31:0] $end
$var wire 32 : MEMWB_ALUresult_o [31:0] $end
$var wire 1 ; Jump $end
$var wire 32 < Imm_Gen_o [31:0] $end
$var wire 32 = IM_o [31:0] $end
$var wire 1 > IFID_Write $end
$var wire 32 ? IFID_PC_o [31:0] $end
$var wire 32 @ IFID_PC_Add4_o [31:0] $end
$var wire 32 A IFID_Instr_o [31:0] $end
$var wire 3 B IDEXE_WB_o [2:0] $end
$var wire 32 C IDEXE_RTdata_o [31:0] $end
$var wire 32 D IDEXE_RSdata_o [31:0] $end
$var wire 32 E IDEXE_PC_add4_o [31:0] $end
$var wire 2 F IDEXE_Mem_o [1:0] $end
$var wire 32 G IDEXE_Instr_o [31:0] $end
$var wire 4 H IDEXE_Instr_30_14_12_o [3:0] $end
$var wire 5 I IDEXE_Instr_11_7_o [4:0] $end
$var wire 32 J IDEXE_ImmGen_o [31:0] $end
$var wire 3 K IDEXE_Exe_o [2:0] $end
$var wire 2 L ForwardB [1:0] $end
$var wire 2 M ForwardA [1:0] $end
$var wire 1 N EXEMEM_Zero_o $end
$var wire 3 O EXEMEM_WB_o [2:0] $end
$var wire 32 P EXEMEM_RTdata_o [31:0] $end
$var wire 32 Q EXEMEM_PC_Add4_o [31:0] $end
$var wire 2 R EXEMEM_Mem_o [1:0] $end
$var wire 32 S EXEMEM_Instr_o [31:0] $end
$var wire 5 T EXEMEM_Instr_11_7_o [4:0] $end
$var wire 32 U EXEMEM_ALUResult_o [31:0] $end
$var wire 32 V DM_o [31:0] $end
$var wire 1 W Branch_zero $end
$var wire 1 X Branch $end
$var wire 1 Y ALU_zero $end
$var wire 4 Z ALU_Ctrl_o [3:0] $end
$var wire 32 [ ALUSrc2_o [31:0] $end
$var wire 32 \ ALUSrc1_o [31:0] $end
$var wire 1 ] ALUSrc $end
$var wire 32 ^ ALUResult [31:0] $end
$var wire 2 _ ALUOp [1:0] $end
$scope module ALU_Ctrl $end
$var wire 2 ` ALUOp [1:0] $end
$var wire 4 a instr [3:0] $end
$var wire 3 b func3 [2:0] $end
$var reg 4 c ALU_Ctrl_o [3:0] $end
$upscope $end
$scope module Branch_Adder $end
$var wire 32 d sum_o [31:0] $end
$var wire 32 e src2_i [31:0] $end
$var wire 32 f src1_i [31:0] $end
$upscope $end
$scope module Data_Memory $end
$var wire 1 g MemRead_i $end
$var wire 1 h MemWrite_i $end
$var wire 1 ! clk_i $end
$var wire 32 i data_o [31:0] $end
$var wire 32 j data_i [31:0] $end
$var wire 32 k addr_i [31:0] $end
$var integer 32 l i [31:0] $end
$upscope $end
$scope module Decoder $end
$var wire 3 m funct3 [2:0] $end
$var wire 7 n instr_i [6:0] $end
$var wire 7 o opcode [6:0] $end
$var wire 1 ' RegWrite $end
$var wire 1 / MemtoReg $end
$var wire 1 0 MemWrite $end
$var wire 1 1 MemRead $end
$var wire 1 ; Jump $end
$var wire 1 X Branch $end
$var wire 1 ] ALUSrc $end
$var wire 2 p ALUOp [1:0] $end
$upscope $end
$scope module EXEtoMEM $end
$var wire 1 ! clk_i $end
$var wire 1 " rst_i $end
$var wire 1 Y zero_i $end
$var wire 32 q rtdata_i [31:0] $end
$var wire 32 r pc_add4_i [31:0] $end
$var wire 32 s instr_i [31:0] $end
$var wire 32 t alu_ans_i [31:0] $end
$var wire 5 u WBreg_i [4:0] $end
$var wire 3 v WB_i [2:0] $end
$var wire 2 w Mem_i [1:0] $end
$var reg 2 x Mem_o [1:0] $end
$var reg 3 y WB_o [2:0] $end
$var reg 5 z WBreg_o [4:0] $end
$var reg 32 { alu_ans_o [31:0] $end
$var reg 32 | instr_o [31:0] $end
$var reg 32 } pc_add4_o [31:0] $end
$var reg 32 ~ rtdata_o [31:0] $end
$var reg 1 N zero_o $end
$upscope $end
$scope module FWUnit $end
$var wire 5 !" EXEMEM_RD [4:0] $end
$var wire 1 "" EXEMEM_RegWrite $end
$var wire 5 #" IDEXE_RS1 [4:0] $end
$var wire 5 $" IDEXE_RS2 [4:0] $end
$var wire 1 %" MEMWB_RegWrite $end
$var wire 5 &" MEMWB_RD [4:0] $end
$var reg 2 '" ForwardA [1:0] $end
$var reg 2 (" ForwardB [1:0] $end
$upscope $end
$scope module Hazard_detection_obj $end
$var wire 1 )" IDEXE_memRead $end
$var wire 5 *" IFID_regRs [4:0] $end
$var wire 5 +" IFID_regRt [4:0] $end
$var wire 5 ," IDEXE_regRd [4:0] $end
$var reg 1 > IFID_write $end
$var reg 1 * PC_write $end
$var reg 1 4 control_output_select $end
$upscope $end
$scope module IDtoEXE $end
$var wire 3 -" Exe_i [2:0] $end
$var wire 2 ." Mem_i [1:0] $end
$var wire 3 /" WB_i [2:0] $end
$var wire 5 0" WBreg_i [4:0] $end
$var wire 4 1" alu_ctrl_instr [3:0] $end
$var wire 1 ! clk_i $end
$var wire 1 " rst_i $end
$var wire 32 2" pc_add4_i [31:0] $end
$var wire 32 3" instr_i [31:0] $end
$var wire 32 4" immgen_i [31:0] $end
$var wire 32 5" data2_i [31:0] $end
$var wire 32 6" data1_i [31:0] $end
$var reg 3 7" Exe_o [2:0] $end
$var reg 2 8" Mem_o [1:0] $end
$var reg 3 9" WB_o [2:0] $end
$var reg 5 :" WBreg_o [4:0] $end
$var reg 4 ;" alu_ctrl_input [3:0] $end
$var reg 32 <" data1_o [31:0] $end
$var reg 32 =" data2_o [31:0] $end
$var reg 32 >" immgen_o [31:0] $end
$var reg 32 ?" instr_o [31:0] $end
$var reg 32 @" pc_add4_o [31:0] $end
$upscope $end
$scope module IFtoID $end
$var wire 1 > IFID_write $end
$var wire 1 ! clk_i $end
$var wire 1 % flush $end
$var wire 1 " rst_i $end
$var wire 32 A" pc_add4_i [31:0] $end
$var wire 32 B" instr_i [31:0] $end
$var wire 32 C" address_i [31:0] $end
$var reg 32 D" address_o [31:0] $end
$var reg 32 E" instr_o [31:0] $end
$var reg 32 F" pc_add4_o [31:0] $end
$upscope $end
$scope module IM $end
$var wire 32 G" instr_o [31:0] $end
$var wire 32 H" addr_i [31:0] $end
$var integer 32 I" i [31:0] $end
$upscope $end
$scope module ImmGen $end
$var wire 32 J" instr_i [31:0] $end
$var wire 7 K" opcode [6:0] $end
$var wire 3 L" func3 [2:0] $end
$var reg 32 M" Imm_Gen_o [31:0] $end
$upscope $end
$scope module MEMtoWB $end
$var wire 32 N" DM_i [31:0] $end
$var wire 3 O" WB_i [2:0] $end
$var wire 5 P" WBreg_i [4:0] $end
$var wire 32 Q" alu_ans_i [31:0] $end
$var wire 1 ! clk_i $end
$var wire 32 R" pc_add4_i [31:0] $end
$var wire 1 " rst_i $end
$var reg 32 S" DM_o [31:0] $end
$var reg 3 T" WB_o [2:0] $end
$var reg 5 U" WBreg_o [4:0] $end
$var reg 32 V" alu_ans_o [31:0] $end
$var reg 32 W" pc_add4_o [31:0] $end
$upscope $end
$scope module MUX_ALUSrc $end
$var wire 32 X" data0_i [31:0] $end
$var wire 32 Y" data1_i [31:0] $end
$var wire 1 Z" select_i $end
$var wire 32 [" data_o [31:0] $end
$upscope $end
$scope module MUX_ALU_src1 $end
$var wire 32 \" data0_i [31:0] $end
$var wire 32 ]" data2_i [31:0] $end
$var wire 2 ^" select_i [1:0] $end
$var wire 32 _" data_o [31:0] $end
$var wire 32 `" data1_i [31:0] $end
$upscope $end
$scope module MUX_ALU_src2 $end
$var wire 32 a" data0_i [31:0] $end
$var wire 32 b" data2_i [31:0] $end
$var wire 2 c" select_i [1:0] $end
$var wire 32 d" data_o [31:0] $end
$var wire 32 e" data1_i [31:0] $end
$upscope $end
$scope module MUX_MemtoReg $end
$var wire 32 f" data0_i [31:0] $end
$var wire 32 g" data1_i [31:0] $end
$var wire 32 h" data2_i [31:0] $end
$var wire 2 i" select_i [1:0] $end
$var wire 32 j" data_o [31:0] $end
$upscope $end
$scope module MUX_PCSrc $end
$var wire 32 k" data0_i [31:0] $end
$var wire 1 l" select_i $end
$var wire 32 m" data_o [31:0] $end
$var wire 32 n" data1_i [31:0] $end
$upscope $end
$scope module MUX_control $end
$var wire 8 o" data0_i [7:0] $end
$var wire 8 p" data1_i [7:0] $end
$var wire 1 4 select_i $end
$var wire 8 q" data_o [7:0] $end
$upscope $end
$scope module PC $end
$var wire 1 * PCWrite $end
$var wire 1 ! clk_i $end
$var wire 32 r" pc_i [31:0] $end
$var wire 1 " rst_i $end
$var reg 32 s" pc_o [31:0] $end
$upscope $end
$scope module PC_plus_4_Adder $end
$var wire 32 t" src1_i [31:0] $end
$var wire 32 u" src2_i [31:0] $end
$var wire 32 v" sum_o [31:0] $end
$upscope $end
$scope module RF $end
$var wire 5 w" RDaddr_i [4:0] $end
$var wire 32 x" RDdata_i [31:0] $end
$var wire 5 y" RSaddr_i [4:0] $end
$var wire 32 z" RSdata_o [31:0] $end
$var wire 5 {" RTaddr_i [4:0] $end
$var wire 32 |" RTdata_o [31:0] $end
$var wire 1 }" RegWrite_i $end
$var wire 1 ! clk_i $end
$var wire 1 " rst_i $end
$upscope $end
$scope module SL1 $end
$var wire 32 ~" data_i [31:0] $end
$var wire 32 !# data_o [31:0] $end
$upscope $end
$scope module alu $end
$var wire 4 "# ALU_control [3:0] $end
$var wire 1 " rst_n $end
$var wire 32 ## src1 [31:0] $end
$var wire 32 $# src2 [31:0] $end
$var reg 32 %# a [31:0] $end
$var reg 32 &# b [31:0] $end
$var reg 32 '# result [31:0] $end
$var reg 1 Y zero $end
$upscope $end
$upscope $end
$upscope $end
$enddefinitions $end
#0
$dumpvars
b0 '#
bx &#
bx %#
bx $#
bx ##
bx "#
bx0 !#
bx ~"
x}"
bx |"
bx {"
bx z"
bx y"
bx x"
bx w"
bx v"
b100 u"
bx t"
bx s"
bx r"
bx q"
b0 p"
bx o"
bx n"
bx m"
xl"
bx k"
bx j"
bx i"
bx h"
bx g"
bx f"
bx e"
bx d"
bx c"
bx b"
bx a"
bx `"
bx _"
bx ^"
bx ]"
bx \"
bx ["
xZ"
bx Y"
bx X"
bx W"
bx V"
bx U"
bx T"
bx S"
bx R"
bx Q"
bx P"
bx O"
bx N"
bx M"
bx L"
bx K"
bx J"
b100000 I"
bx H"
bx G"
bx F"
bx E"
bx D"
bx C"
bx B"
bx A"
bx @"
bx ?"
bx >"
bx ="
bx <"
bx ;"
bx :"
bx 9"
bx 8"
bx 7"
bx 6"
bx 5"
bx 4"
bx 3"
bx 2"
bx 1"
bx 0"
bx /"
bx ."
bx -"
bx ,"
bx +"
bx *"
x)"
bx ("
bx '"
bx &"
x%"
bx $"
bx #"
x""
bx !"
bx ~
bx }
bx |
bx {
bx z
bx y
bx x
bx w
bx v
bx u
b0 t
bx s
bx r
bx q
bx p
bx o
bx n
bx m
b10000000 l
bx k
bx j
bx i
xh
xg
bx0 f
bx e
bx d
bx c
bx b
bx a
bx `
bx _
b0 ^
x]
bx \
bx [
bx Z
1Y
xX
xW
bx V
bx U
bx T
bx S
bx R
bx Q
bx P
bx O
xN
bx M
bx L
bx K
bx J
bx I
bx H
bx G
bx F
bx E
bx D
bx C
bx B
bx A
bx @
bx ?
x>
bx =
bx <
x;
bx :
bx 9
bx 8
bx 7
bx 6
bx 5
x4
bx 3
bx 2
x1
x0
x/
bx .
bx -
bx ,
bx +
x*
bx )
bx (
x'
bx0 &
x%
b10000000000000000000000000000011 $
b0 #
0"
0!
$end
#25000
b0 -
b0 d
b0 k"
b0 &
b0 f
b0 !#
b0 &#
b0 %#
b0 <
b0 4"
b0 M"
b0 ~"
04
1>
1*
b10 Z
b10 c
b10 "#
b100 ,
b100 m"
b100 r"
1l"
0%
1]
b1 -"
b0 ."
1'
0X
0/
b10 /"
01
00
b0 _
b0 p
b1000001 2
b1000001 q"
b1000001 o"
0;
b0 [
b0 q
b0 d"
b0 $#
b0 K"
b0 L"
b0 0"
b0 1"
1W
b0 (
b0 5"
b0 |"
b0 {"
b0 )
b0 6"
b0 z"
b0 y"
b0 o
b0 n
b0 +"
b0 *"
b0 b
b0 5
b0 ["
b0 a"
b0 \
b0 _"
b0 ##
b0 `
0Z"
0)"
b0 $"
b0 #"
b0 V
b0 i
b0 N"
0h
0g
0""
b0 L
b0 ("
b0 c"
b0 M
b0 '"
b0 ^"
b0 3
b0 `"
b0 e"
b0 j"
b0 x"
b0 i"
0%"
0}"
b100 .
b100 A"
b100 n"
b100 v"
b100000000000000011101111 =
b100000000000000011101111 B"
b100000000000000011101111 G"
b0 +
b0 C"
b0 H"
b0 s"
b0 t"
b0 @
b0 2"
b0 F"
b0 A
b0 3"
b0 E"
b0 J"
b0 ?
b0 e
b0 D"
b0 E
b0 r
b0 @"
b0 I
b0 u
b0 ,"
b0 :"
b0 H
b0 a
b0 ;"
b0 J
b0 >"
b0 Y"
b0 C
b0 ="
b0 X"
b0 D
b0 <"
b0 \"
b0 K
b0 7"
b0 F
b0 w
b0 8"
b0 B
b0 v
b0 9"
b0 G
b0 s
b0 ?"
b0 Q
b0 }
b0 R"
b0 T
b0 z
b0 !"
b0 P"
b0 P
b0 j
b0 ~
b0 U
b0 k
b0 {
b0 Q"
b0 ]"
b0 b"
0N
b0 R
b0 x
b0 O
b0 y
b0 O"
b0 S
b0 |
b0 7
b0 W"
b0 h"
b0 8
b0 &"
b0 U"
b0 w"
b0 :
b0 V"
b0 f"
b0 9
b0 S"
b0 g"
b0 6
b0 T"
b1 #
1!
#50000
0!
1"
#75000
b10000 -
b10000 d
b10000 k"
b10000 &
b10000 f
b10000 !#
b1000 <
b1000 4"
b1000 M"
b1000 ~"
0]
b10 -"
b11 /"
0l"
b1 _
b1 p
b1100010 2
b1100010 q"
1%
b1100010 o"
1;
1Z"
b1101111 K"
b1 0"
b1000 {"
b1101111 o
b1101111 n
b1000 +"
b10000 ,
b10000 m"
b10000 r"
1N
b1 K
b1 7"
b10 B
b10 v
b10 9"
b100 @
b100 2"
b100 F"
b100000000000000011101111 A
b100000000000000011101111 3"
b100000000000000011101111 E"
b100000000000000011101111 J"
b1000 .
b1000 A"
b1000 n"
b1000 v"
b10100100000001000010011 =
b10100100000001000010011 B"
b10100100000001000010011 G"
b100 +
b100 C"
b100 H"
b100 s"
b100 t"
b10 #
1!
#100000
0!
#125000
b0 -
b0 d
b0 k"
b0 &
b0 f
b0 !#
b0 &#
b110 Z
b110 c
b110 "#
b0 <
b0 4"
b0 M"
b0 ~"
1]
b10100 ,
b10100 m"
b10100 r"
b1 -"
b10 /"
1l"
b0 _
b0 p
b1000001 2
b1000001 q"
0%
b1000001 o"
0;
b0 [
b0 q
b0 d"
b0 $#
b0 K"
b0 0"
b0 {"
b0 o
b0 n
b0 +"
b0 5
b0 ["
b0 a"
b1 `
0Z"
b1000 $"
1""
b10100 .
b10100 A"
b10100 n"
b10100 v"
b0 =
b0 B"
b0 G"
b10000 +
b10000 C"
b10000 H"
b10000 s"
b10000 t"
b0 @
b0 2"
b0 F"
b0 A
b0 3"
b0 E"
b0 J"
b100 E
b100 r
b100 @"
b1 I
b1 u
b1 ,"
b1 :"
b1000 J
b1000 >"
b1000 Y"
b10 K
b10 7"
b11 B
b11 v
b11 9"
b100000000000000011101111 G
b100000000000000011101111 s
b100000000000000011101111 ?"
b10 O
b10 y
b10 O"
b11 #
1!
#150000
0!
#175000
b10 Z
b10 c
b10 "#
b1 L
b1 ("
b1 c"
b1 M
b1 '"
b1 ^"
1%"
1}"
b0 `
1Z"
b0 $"
b11000 ,
b11000 m"
b11000 r"
b10 6
b10 T"
b100 Q
b100 }
b100 R"
b1 T
b1 z
b1 !"
b1 P"
b11 O
b11 y
b11 O"
b100000000000000011101111 S
b100000000000000011101111 |
b0 E
b0 r
b0 @"
b0 I
b0 u
b0 ,"
b0 :"
b0 J
b0 >"
b0 Y"
b1 K
b1 7"
b10 B
b10 v
b10 9"
b0 G
b0 s
b0 ?"
b10100 @
b10100 2"
b10100 F"
b10000 -
b10000 d
b10000 k"
b10000 ?
b10000 e
b10000 D"
b11000 .
b11000 A"
b11000 n"
b11000 v"
b10100 +
b10100 C"
b10100 H"
b10100 s"
b10100 t"
b100 #
1!
#200000
0!
#225000
b100 3
b100 `"
b100 e"
b100 j"
b100 x"
b11100 ,
b11100 m"
b11100 r"
b0 L
b0 ("
b0 c"
b0 M
b0 '"
b0 ^"
b10 i"
b11100 .
b11100 A"
b11100 n"
b11100 v"
b11000 +
b11000 C"
b11000 H"
b11000 s"
b11000 t"
b11000 @
b11000 2"
b11000 F"
b10100 -
b10100 d
b10100 k"
b10100 ?
b10100 e
b10100 D"
b10100 E
b10100 r
b10100 @"
b0 Q
b0 }
b0 R"
b0 T
b0 z
b0 !"
b0 P"
b10 O
b10 y
b10 O"
b0 S
b0 |
b100 7
b100 W"
b100 h"
b1 8
b1 &"
b1 U"
b1 w"
b11 6
b11 T"
b101 #
1!
#250000
0!
#275000
b0 3
b0 `"
b0 e"
b0 j"
b0 x"
b0 i"
b100000 ,
b100000 m"
b100000 r"
b0 7
b0 W"
b0 h"
b0 8
b0 &"
b0 U"
b0 w"
b10 6
b10 T"
b10100 Q
b10100 }
b10100 R"
b11000 E
b11000 r
b11000 @"
b11100 @
b11100 2"
b11100 F"
b11000 -
b11000 d
b11000 k"
b11000 ?
b11000 e
b11000 D"
b100000 .
b100000 A"
b100000 n"
b100000 v"
b11100 +
b11100 C"
b11100 H"
b11100 s"
b11100 t"
b110 #
1!
#300000
0!
#325000
b100100 ,
b100100 m"
b100100 r"
b100100 .
b100100 A"
b100100 n"
b100100 v"
b100000 +
b100000 C"
b100000 H"
b100000 s"
b100000 t"
b100000 @
b100000 2"
b100000 F"
b11100 -
b11100 d
b11100 k"
b11100 ?
b11100 e
b11100 D"
b11100 E
b11100 r
b11100 @"
b11000 Q
b11000 }
b11000 R"
b10100 7
b10100 W"
b10100 h"
b111 #
1!
#350000
0!
#375000
b101000 ,
b101000 m"
b101000 r"
b11000 7
b11000 W"
b11000 h"
b11100 Q
b11100 }
b11100 R"
b100000 E
b100000 r
b100000 @"
b100100 @
b100100 2"
b100100 F"
b100000 -
b100000 d
b100000 k"
b100000 ?
b100000 e
b100000 D"
b101000 .
b101000 A"
b101000 n"
b101000 v"
b100100 +
b100100 C"
b100100 H"
b100100 s"
b100100 t"
b1000 #
1!
#400000
0!
#425000
b101100 ,
b101100 m"
b101100 r"
b101100 .
b101100 A"
b101100 n"
b101100 v"
b101000 +
b101000 C"
b101000 H"
b101000 s"
b101000 t"
b101000 @
b101000 2"
b101000 F"
b100100 -
b100100 d
b100100 k"
b100100 ?
b100100 e
b100100 D"
b100100 E
b100100 r
b100100 @"
b100000 Q
b100000 }
b100000 R"
b11100 7
b11100 W"
b11100 h"
b1001 #
1!
#450000
0!
#475000
b110000 ,
b110000 m"
b110000 r"
b100000 7
b100000 W"
b100000 h"
b100100 Q
b100100 }
b100100 R"
b101000 E
b101000 r
b101000 @"
b101100 @
b101100 2"
b101100 F"
b101000 -
b101000 d
b101000 k"
b101000 ?
b101000 e
b101000 D"
b110000 .
b110000 A"
b110000 n"
b110000 v"
b101100 +
b101100 C"
b101100 H"
b101100 s"
b101100 t"
b1010 #
1!
#500000
0!
#525000
b110100 ,
b110100 m"
b110100 r"
b110100 .
b110100 A"
b110100 n"
b110100 v"
b110000 +
b110000 C"
b110000 H"
b110000 s"
b110000 t"
b110000 @
b110000 2"
b110000 F"
b101100 -
b101100 d
b101100 k"
b101100 ?
b101100 e
b101100 D"
b101100 E
b101100 r
b101100 @"
b101000 Q
b101000 }
b101000 R"
b100100 7
b100100 W"
b100100 h"
b1011 #
1!
#550000
0!
#575000
b111000 ,
b111000 m"
b111000 r"
b101000 7
b101000 W"
b101000 h"
b101100 Q
b101100 }
b101100 R"
b110000 E
b110000 r
b110000 @"
b110100 @
b110100 2"
b110100 F"
b110000 -
b110000 d
b110000 k"
b110000 ?
b110000 e
b110000 D"
b111000 .
b111000 A"
b111000 n"
b111000 v"
b110100 +
b110100 C"
b110100 H"
b110100 s"
b110100 t"
b1100 #
1!
#600000
0!
#625000
b111100 ,
b111100 m"
b111100 r"
b111100 .
b111100 A"
b111100 n"
b111100 v"
b111000 +
b111000 C"
b111000 H"
b111000 s"
b111000 t"
b111000 @
b111000 2"
b111000 F"
b110100 -
b110100 d
b110100 k"
b110100 ?
b110100 e
b110100 D"
b110100 E
b110100 r
b110100 @"
b110000 Q
b110000 }
b110000 R"
b101100 7
b101100 W"
b101100 h"
b1101 #
1!
#650000
0!
#675000
b1000000 ,
b1000000 m"
b1000000 r"
b110000 7
b110000 W"
b110000 h"
b110100 Q
b110100 }
b110100 R"
b111000 E
b111000 r
b111000 @"
b111100 @
b111100 2"
b111100 F"
b111000 -
b111000 d
b111000 k"
b111000 ?
b111000 e
b111000 D"
b1000000 .
b1000000 A"
b1000000 n"
b1000000 v"
b111100 +
b111100 C"
b111100 H"
b111100 s"
b111100 t"
b1110 #
1!
#700000
0!
#725000
b1000100 ,
b1000100 m"
b1000100 r"
b1000100 .
b1000100 A"
b1000100 n"
b1000100 v"
b1000000 +
b1000000 C"
b1000000 H"
b1000000 s"
b1000000 t"
b1000000 @
b1000000 2"
b1000000 F"
b111100 -
b111100 d
b111100 k"
b111100 ?
b111100 e
b111100 D"
b111100 E
b111100 r
b111100 @"
b111000 Q
b111000 }
b111000 R"
b110100 7
b110100 W"
b110100 h"
b1111 #
1!
#750000
0!
#775000
b1001000 ,
b1001000 m"
b1001000 r"
b111000 7
b111000 W"
b111000 h"
b111100 Q
b111100 }
b111100 R"
b1000000 E
b1000000 r
b1000000 @"
b1000100 @
b1000100 2"
b1000100 F"
b1000000 -
b1000000 d
b1000000 k"
b1000000 ?
b1000000 e
b1000000 D"
b1001000 .
b1001000 A"
b1001000 n"
b1001000 v"
b1000100 +
b1000100 C"
b1000100 H"
b1000100 s"
b1000100 t"
b10000 #
1!
#800000
0!
#825000
b1001100 ,
b1001100 m"
b1001100 r"
b1001100 .
b1001100 A"
b1001100 n"
b1001100 v"
b1001000 +
b1001000 C"
b1001000 H"
b1001000 s"
b1001000 t"
b1001000 @
b1001000 2"
b1001000 F"
b1000100 -
b1000100 d
b1000100 k"
b1000100 ?
b1000100 e
b1000100 D"
b1000100 E
b1000100 r
b1000100 @"
b1000000 Q
b1000000 }
b1000000 R"
b111100 7
b111100 W"
b111100 h"
b10001 #
1!
#850000
0!
#875000
b1010000 ,
b1010000 m"
b1010000 r"
b1000000 7
b1000000 W"
b1000000 h"
b1000100 Q
b1000100 }
b1000100 R"
b1001000 E
b1001000 r
b1001000 @"
b1001100 @
b1001100 2"
b1001100 F"
b1001000 -
b1001000 d
b1001000 k"
b1001000 ?
b1001000 e
b1001000 D"
b1010000 .
b1010000 A"
b1010000 n"
b1010000 v"
b1001100 +
b1001100 C"
b1001100 H"
b1001100 s"
b1001100 t"
b10010 #
1!
#900000
0!
#925000
b1010100 ,
b1010100 m"
b1010100 r"
b1010100 .
b1010100 A"
b1010100 n"
b1010100 v"
b1010000 +
b1010000 C"
b1010000 H"
b1010000 s"
b1010000 t"
b1010000 @
b1010000 2"
b1010000 F"
b1001100 -
b1001100 d
b1001100 k"
b1001100 ?
b1001100 e
b1001100 D"
b1001100 E
b1001100 r
b1001100 @"
b1001000 Q
b1001000 }
b1001000 R"
b1000100 7
b1000100 W"
b1000100 h"
b10011 #
1!
#950000
0!
#975000
b1011000 ,
b1011000 m"
b1011000 r"
b1001000 7
b1001000 W"
b1001000 h"
b1001100 Q
b1001100 }
b1001100 R"
b1010000 E
b1010000 r
b1010000 @"
b1010100 @
b1010100 2"
b1010100 F"
b1010000 -
b1010000 d
b1010000 k"
b1010000 ?
b1010000 e
b1010000 D"
b1011000 .
b1011000 A"
b1011000 n"
b1011000 v"
b1010100 +
b1010100 C"
b1010100 H"
b1010100 s"
b1010100 t"
b10100 #
1!
#1000000
0!
#1025000
b1011100 ,
b1011100 m"
b1011100 r"
b1011100 .
b1011100 A"
b1011100 n"
b1011100 v"
b1011000 +
b1011000 C"
b1011000 H"
b1011000 s"
b1011000 t"
b1011000 @
b1011000 2"
b1011000 F"
b1010100 -
b1010100 d
b1010100 k"
b1010100 ?
b1010100 e
b1010100 D"
b1010100 E
b1010100 r
b1010100 @"
b1010000 Q
b1010000 }
b1010000 R"
b1001100 7
b1001100 W"
b1001100 h"
b10101 #
1!
#1050000
0!
#1075000
b1100000 ,
b1100000 m"
b1100000 r"
b1010000 7
b1010000 W"
b1010000 h"
b1010100 Q
b1010100 }
b1010100 R"
b1011000 E
b1011000 r
b1011000 @"
b1011100 @
b1011100 2"
b1011100 F"
b1011000 -
b1011000 d
b1011000 k"
b1011000 ?
b1011000 e
b1011000 D"
b1100000 .
b1100000 A"
b1100000 n"
b1100000 v"
b1011100 +
b1011100 C"
b1011100 H"
b1011100 s"
b1011100 t"
b10110 #
1!
#1100000
0!
#1125000
b1100100 ,
b1100100 m"
b1100100 r"
b1100100 .
b1100100 A"
b1100100 n"
b1100100 v"
b1100000 +
b1100000 C"
b1100000 H"
b1100000 s"
b1100000 t"
b1100000 @
b1100000 2"
b1100000 F"
b1011100 -
b1011100 d
b1011100 k"
b1011100 ?
b1011100 e
b1011100 D"
b1011100 E
b1011100 r
b1011100 @"
b1011000 Q
b1011000 }
b1011000 R"
b1010100 7
b1010100 W"
b1010100 h"
b10111 #
1!
#1150000
0!
#1175000
b1101000 ,
b1101000 m"
b1101000 r"
b1011000 7
b1011000 W"
b1011000 h"
b1011100 Q
b1011100 }
b1011100 R"
b1100000 E
b1100000 r
b1100000 @"
b1100100 @
b1100100 2"
b1100100 F"
b1100000 -
b1100000 d
b1100000 k"
b1100000 ?
b1100000 e
b1100000 D"
b1101000 .
b1101000 A"
b1101000 n"
b1101000 v"
b1100100 +
b1100100 C"
b1100100 H"
b1100100 s"
b1100100 t"
b11000 #
1!
#1200000
0!
#1225000
b1101100 ,
b1101100 m"
b1101100 r"
b1101100 .
b1101100 A"
b1101100 n"
b1101100 v"
b1101000 +
b1101000 C"
b1101000 H"
b1101000 s"
b1101000 t"
b1101000 @
b1101000 2"
b1101000 F"
b1100100 -
b1100100 d
b1100100 k"
b1100100 ?
b1100100 e
b1100100 D"
b1100100 E
b1100100 r
b1100100 @"
b1100000 Q
b1100000 }
b1100000 R"
b1011100 7
b1011100 W"
b1011100 h"
b11001 #
1!
#1250000
0!
#1275000
b1110000 ,
b1110000 m"
b1110000 r"
b1100000 7
b1100000 W"
b1100000 h"
b1100100 Q
b1100100 }
b1100100 R"
b1101000 E
b1101000 r
b1101000 @"
b1101100 @
b1101100 2"
b1101100 F"
b1101000 -
b1101000 d
b1101000 k"
b1101000 ?
b1101000 e
b1101000 D"
b1110000 .
b1110000 A"
b1110000 n"
b1110000 v"
b1101100 +
b1101100 C"
b1101100 H"
b1101100 s"
b1101100 t"
b11010 #
1!
#1300000
0!
#1325000
b1110100 ,
b1110100 m"
b1110100 r"
b1110100 .
b1110100 A"
b1110100 n"
b1110100 v"
b1110000 +
b1110000 C"
b1110000 H"
b1110000 s"
b1110000 t"
b1110000 @
b1110000 2"
b1110000 F"
b1101100 -
b1101100 d
b1101100 k"
b1101100 ?
b1101100 e
b1101100 D"
b1101100 E
b1101100 r
b1101100 @"
b1101000 Q
b1101000 }
b1101000 R"
b1100100 7
b1100100 W"
b1100100 h"
b11011 #
1!
#1350000
0!
#1375000
b1111000 ,
b1111000 m"
b1111000 r"
b1101000 7
b1101000 W"
b1101000 h"
b1101100 Q
b1101100 }
b1101100 R"
b1110000 E
b1110000 r
b1110000 @"
b1110100 @
b1110100 2"
b1110100 F"
b1110000 -
b1110000 d
b1110000 k"
b1110000 ?
b1110000 e
b1110000 D"
b1111000 .
b1111000 A"
b1111000 n"
b1111000 v"
b1110100 +
b1110100 C"
b1110100 H"
b1110100 s"
b1110100 t"
b11100 #
1!
#1400000
0!
#1425000
b1111100 ,
b1111100 m"
b1111100 r"
b1111100 .
b1111100 A"
b1111100 n"
b1111100 v"
b1111000 +
b1111000 C"
b1111000 H"
b1111000 s"
b1111000 t"
b1111000 @
b1111000 2"
b1111000 F"
b1110100 -
b1110100 d
b1110100 k"
b1110100 ?
b1110100 e
b1110100 D"
b1110100 E
b1110100 r
b1110100 @"
b1110000 Q
b1110000 }
b1110000 R"
b1101100 7
b1101100 W"
b1101100 h"
b11101 #
1!
#1450000
0!
